<?xml version="1.0" encoding="UTF-8" standalone="no"?><svg xmlns="http://www.w3.org/2000/svg" xmlns:xlink="http://www.w3.org/1999/xlink" contentScriptType="application/ecmascript" contentStyleType="text/css" height="327px" preserveAspectRatio="none" style="width:994px;height:327px;" version="1.1" viewBox="0 0 994 327" width="994.5px" zoomAndPan="magnify"><defs><filter height="300%" id="fyoa5poir6c5t" width="300%" x="-1" y="-1"><feGaussianBlur result="blurOut" stdDeviation="3.0"/><feColorMatrix in="blurOut" result="blurOut2" type="matrix" values="0 0 0 0 0 0 0 0 0 0 0 0 0 0 0 0 0 0 .4 0"/><feOffset dx="6.0" dy="6.0" in="blurOut2" result="blurOut3"/><feBlend in="SourceGraphic" in2="blurOut3" mode="normal"/></filter></defs><g><!--MD5=[cf9071b9b557d1b1388cf90f52fcd68f]
class SurveyUI--><rect codeLine="3" fill="#FEFECE" filter="url(#fyoa5poir6c5t)" height="72" id="SurveyUI" style="stroke:#A80036;stroke-width:2.25;" width="120" x="57" y="31.5"/><ellipse cx="79.5" cy="55.5" fill="#ADD1B2" rx="16.5" ry="16.5" style="stroke:#A80036;stroke-width:1.5;"/><path d="M82.5,50.25 Q82.8047,49.5 83.1563,49.125 Q83.5078,48.75 83.9063,48.75 Q84.6094,48.75 85.0547,49.1719 Q85.5,49.5938 85.5,50.5781 L85.5,52.9219 Q85.5,53.9063 85.0781,54.3281 Q84.6563,54.75 84,54.75 Q83.4141,54.75 83.0391,54.4922 Q82.6641,54.2344 82.5,53.5547 Q82.4297,53.0859 82.1719,52.8281 Q81.7031,52.3359 80.8594,52.0547 Q80.0156,51.75 79.1719,51.75 Q78.1172,51.75 77.2266,52.1719 Q76.3594,52.5938 75.6797,53.5313 Q75,54.4688 75,55.7578 L75,57.1406 Q75,58.6875 76.2656,59.7188 Q77.5313,60.75 79.7813,60.75 Q81.1172,60.75 82.0547,60.4453 Q82.5938,60.2813 83.2031,59.7422 Q83.6016,59.4375 83.8125,59.3438 Q84.0234,59.25 84.2813,59.25 Q84.7734,59.25 85.125,59.6484 Q85.5,60.0234 85.5,60.5625 Q85.5,61.0781 84.9844,61.6875 Q84.2344,62.5781 83.0391,63.0703 Q81.4688,63.75 79.5469,63.75 Q77.2969,63.75 75.4922,62.8594 Q74.0391,62.1563 73.0078,60.6328 Q72,59.1094 72,57.3047 L72,55.6641 Q72,53.7891 72.8906,52.1484 Q73.8047,50.5078 75.375,49.6406 Q76.9688,48.75 78.75,48.75 Q79.8281,48.75 80.7656,49.125 Q81.7031,49.5 82.5,50.25 Z " fill="#000000"/><text fill="#000000" font-family="sans-serif" font-size="18" lengthAdjust="spacing" textLength="72" x="100.5" y="62.8652">SurveyUI</text><line style="stroke:#A80036;stroke-width:2.25;" x1="58.5" x2="175.5" y1="79.5" y2="79.5"/><line style="stroke:#A80036;stroke-width:2.25;" x1="58.5" x2="175.5" y1="91.5" y2="91.5"/><!--MD5=[1392191afe825be7452c7477a8df8301]
class SurveyController--><rect codeLine="4" fill="#FEFECE" filter="url(#fyoa5poir6c5t)" height="92.7539" id="SurveyController" style="stroke:#A80036;stroke-width:2.25;" width="345" x="229.5" y="21"/><ellipse cx="328.125" cy="45" fill="#ADD1B2" rx="16.5" ry="16.5" style="stroke:#A80036;stroke-width:1.5;"/><path d="M331.125,39.75 Q331.4297,39 331.7813,38.625 Q332.1328,38.25 332.5313,38.25 Q333.2344,38.25 333.6797,38.6719 Q334.125,39.0938 334.125,40.0781 L334.125,42.4219 Q334.125,43.4063 333.7031,43.8281 Q333.2813,44.25 332.625,44.25 Q332.0391,44.25 331.6641,43.9922 Q331.2891,43.7344 331.125,43.0547 Q331.0547,42.5859 330.7969,42.3281 Q330.3281,41.8359 329.4844,41.5547 Q328.6406,41.25 327.7969,41.25 Q326.7422,41.25 325.8516,41.6719 Q324.9844,42.0938 324.3047,43.0313 Q323.625,43.9688 323.625,45.2578 L323.625,46.6406 Q323.625,48.1875 324.8906,49.2188 Q326.1563,50.25 328.4063,50.25 Q329.7422,50.25 330.6797,49.9453 Q331.2188,49.7813 331.8281,49.2422 Q332.2266,48.9375 332.4375,48.8438 Q332.6484,48.75 332.9063,48.75 Q333.3984,48.75 333.75,49.1484 Q334.125,49.5234 334.125,50.0625 Q334.125,50.5781 333.6094,51.1875 Q332.8594,52.0781 331.6641,52.5703 Q330.0938,53.25 328.1719,53.25 Q325.9219,53.25 324.1172,52.3594 Q322.6641,51.6563 321.6328,50.1328 Q320.625,48.6094 320.625,46.8047 L320.625,45.1641 Q320.625,43.2891 321.5156,41.6484 Q322.4297,40.0078 324,39.1406 Q325.5938,38.25 327.375,38.25 Q328.4531,38.25 329.3906,38.625 Q330.3281,39 331.125,39.75 Z " fill="#000000"/><text fill="#000000" font-family="sans-serif" font-size="18" lengthAdjust="spacing" textLength="135" x="358.875" y="52.3652">SurveyController</text><line style="stroke:#A80036;stroke-width:2.25;" x1="231" x2="573" y1="69" y2="69"/><line style="stroke:#A80036;stroke-width:2.25;" x1="231" x2="573" y1="81" y2="81"/><text fill="#000000" font-family="sans-serif" font-size="16.5" lengthAdjust="spacing" textLength="327" x="238.5" y="104.1284">ShowMySurveys(Iterable&lt;Rules&gt; rules,int id)</text><!--MD5=[34757ec371f37f27ff1fa833c63af58c]
class GetAnswer--><rect codeLine="8" fill="#FEFECE" filter="url(#fyoa5poir6c5t)" height="113.5078" id="GetAnswer" style="stroke:#A80036;stroke-width:2.25;" width="346.5" x="627.75" y="10.5"/><ellipse cx="749.625" cy="34.5" fill="#ADD1B2" rx="16.5" ry="16.5" style="stroke:#A80036;stroke-width:1.5;"/><path d="M752.625,29.25 Q752.9297,28.5 753.2813,28.125 Q753.6328,27.75 754.0313,27.75 Q754.7344,27.75 755.1797,28.1719 Q755.625,28.5938 755.625,29.5781 L755.625,31.9219 Q755.625,32.9063 755.2031,33.3281 Q754.7813,33.75 754.125,33.75 Q753.5391,33.75 753.1641,33.4922 Q752.7891,33.2344 752.625,32.5547 Q752.5547,32.0859 752.2969,31.8281 Q751.8281,31.3359 750.9844,31.0547 Q750.1406,30.75 749.2969,30.75 Q748.2422,30.75 747.3516,31.1719 Q746.4844,31.5938 745.8047,32.5313 Q745.125,33.4688 745.125,34.7578 L745.125,36.1406 Q745.125,37.6875 746.3906,38.7188 Q747.6563,39.75 749.9063,39.75 Q751.2422,39.75 752.1797,39.4453 Q752.7188,39.2813 753.3281,38.7422 Q753.7266,38.4375 753.9375,38.3438 Q754.1484,38.25 754.4063,38.25 Q754.8984,38.25 755.25,38.6484 Q755.625,39.0234 755.625,39.5625 Q755.625,40.0781 755.1094,40.6875 Q754.3594,41.5781 753.1641,42.0703 Q751.5938,42.75 749.6719,42.75 Q747.4219,42.75 745.6172,41.8594 Q744.1641,41.1563 743.1328,39.6328 Q742.125,38.1094 742.125,36.3047 L742.125,34.6641 Q742.125,32.7891 743.0156,31.1484 Q743.9297,29.5078 745.5,28.6406 Q747.0938,27.75 748.875,27.75 Q749.9531,27.75 750.8906,28.125 Q751.8281,28.5 752.625,29.25 Z " fill="#000000"/><text fill="#000000" font-family="sans-serif" font-size="18" lengthAdjust="spacing" textLength="90" x="780.375" y="41.8652">GetAnswer</text><line style="stroke:#A80036;stroke-width:2.25;" x1="629.25" x2="972.75" y1="58.5" y2="58.5"/><line style="stroke:#A80036;stroke-width:2.25;" x1="629.25" x2="972.75" y1="70.5" y2="70.5"/><text fill="#000000" font-family="sans-serif" font-size="16.5" lengthAdjust="spacing" textLength="306" x="636.75" y="93.6284">VerifyRules(Iterable&lt;Rules&gt; ruleslist,int id)</text><text fill="#000000" font-family="sans-serif" font-size="16.5" lengthAdjust="spacing" textLength="328.5" x="636.75" y="114.3823">MakeAnswers(String filepath, int idCostumer)</text><!--MD5=[281fbad5b7e8c06e62e9d44652607841]
class costumerRepository--><rect codeLine="16" fill="#FEFECE" filter="url(#fyoa5poir6c5t)" height="92.7539" id="costumerRepository" style="stroke:#A80036;stroke-width:2.25;" width="213" x="10.5" y="214.5"/><ellipse cx="33" cy="238.5" fill="#B4A7E5" rx="16.5" ry="16.5" style="stroke:#A80036;stroke-width:1.5;"/><path d="M34.5,234 L34.5,243 L37.5,243 L38.2266,243 L39,243.9375 L39,244.5 L39,245.0625 L38.2266,246 L37.5,246 L28.5,246 L27.7734,246 L27,245.0625 L27,244.5 L27,243.9375 L27.7734,243 L28.5,243 L31.5,243 L31.5,234 L28.5,234 L27.7734,234 L27,233.0625 L27,232.5 L27,231.9375 L27.7734,231 L28.5,231 L37.5,231 L38.2266,231 L39,231.9375 L39,232.5 L39,233.0625 L38.2266,234 L37.5,234 L34.5,234 Z " fill="#000000"/><text fill="#000000" font-family="sans-serif" font-size="18" font-style="italic" lengthAdjust="spacing" textLength="165" x="54" y="245.8652">costumerRepository</text><line style="stroke:#A80036;stroke-width:2.25;" x1="12" x2="222" y1="262.5" y2="262.5"/><line style="stroke:#A80036;stroke-width:2.25;" x1="12" x2="222" y1="274.5" y2="274.5"/><text fill="#000000" font-family="sans-serif" font-size="16.5" lengthAdjust="spacing" textLength="106.5" x="19.5" y="297.6284">findbyId(int id);</text><!--MD5=[051b0c70cccb402d04ac6d9d3b62db1a]
link SurveyUI to SurveyController--><path codeLine="13" d="M177.12,67.5 C191.955,67.5 206.79,67.5 221.625,67.5 " fill="none" id="SurveyUI-to-SurveyController" style="stroke:#A80036;stroke-width:1.5;"/><polygon fill="#A80036" points="229.38,67.5,215.88,61.5,221.88,67.5,215.88,73.5,229.38,67.5" style="stroke:#A80036;stroke-width:1.5;"/><!--MD5=[56b7020c3e2d276b7ed01cc478e9f076]
link SurveyController to GetAnswer--><path codeLine="14" d="M574.62,67.5 C589.68,67.5 604.74,67.5 619.8,67.5 " fill="none" id="SurveyController-to-GetAnswer" style="stroke:#A80036;stroke-width:1.5;"/><polygon fill="#A80036" points="627.675,67.5,614.175,61.5,620.175,67.5,614.175,73.5,627.675,67.5" style="stroke:#A80036;stroke-width:1.5;"/><!--MD5=[942db245889c608c3966925f4cc24693]
link SurveyUI to costumerRepository--><path codeLine="20" d="M117,103.935 C117,132.585 117,173.58 117,206.295 " fill="none" id="SurveyUI-to-costumerRepository" style="stroke:#A80036;stroke-width:1.5;"/><polygon fill="#A80036" points="117,213.99,123,200.49,117,206.49,111,200.49,117,213.99" style="stroke:#A80036;stroke-width:1.5;"/><!--MD5=[19eb8210c44a414042ca4f61da72f25e]
@startuml
'https://plantuml.com/class-diagram

class SurveyUI
class SurveyController{
ShowMySurveys(Iterable<Rules> rules,int id)
}

class GetAnswer{
 VerifyRules(Iterable<Rules> ruleslist,int id)
MakeAnswers(String filepath, int idCostumer)
}

SurveyUI->SurveyController
SurveyController->GetAnswer

interface costumerRepository{
findbyId(int id);
}

SurveyUI- ->costumerRepository
@enduml

@startuml

class SurveyUI
class SurveyController{
ShowMySurveys(Iterable<Rules> rules,int id)
}

class GetAnswer{
 VerifyRules(Iterable<Rules> ruleslist,int id)
MakeAnswers(String filepath, int idCostumer)
}

SurveyUI->SurveyController
SurveyController->GetAnswer

interface costumerRepository{
findbyId(int id);
}

SurveyUI- ->costumerRepository
@enduml

PlantUML version 1.2021.00(Sun Jan 10 10:25:05 GMT 2021)
(GPL source distribution)
Java Runtime: OpenJDK Runtime Environment
JVM: OpenJDK 64-Bit Server VM
Default Encoding: Cp1252
Language: pt
Country: PT
--></g></svg>