<?xml version="1.0" encoding="UTF-8" standalone="no"?><svg xmlns="http://www.w3.org/2000/svg" xmlns:xlink="http://www.w3.org/1999/xlink" contentScriptType="application/ecmascript" contentStyleType="text/css" height="498px" preserveAspectRatio="none" style="width:1386px;height:498px;background:#FFFFFF;" version="1.1" viewBox="0 0 1386 498" width="1386px" zoomAndPan="magnify"><defs><filter height="300%" id="f1a16831mfmohf" width="300%" x="-1" y="-1"><feGaussianBlur result="blurOut" stdDeviation="2.0"/><feColorMatrix in="blurOut" result="blurOut2" type="matrix" values="0 0 0 0 0 0 0 0 0 0 0 0 0 0 0 0 0 0 .4 0"/><feOffset dx="4.0" dy="4.0" in="blurOut2" result="blurOut3"/><feBlend in="SourceGraphic" in2="blurOut3" mode="normal"/></filter></defs><g><rect fill="#FFFFFF" filter="url(#f1a16831mfmohf)" height="273.1641" style="stroke:#A80036;stroke-width:1.0;" width="10" x="232.5" y="121.9609"/><rect fill="#FFFFFF" filter="url(#f1a16831mfmohf)" height="212.4609" style="stroke:#A80036;stroke-width:1.0;" width="10" x="633.5" y="152.3125"/><rect fill="#FFFFFF" filter="url(#f1a16831mfmohf)" height="121.4063" style="stroke:#A80036;stroke-width:1.0;" width="10" x="824.5" y="182.6641"/><rect fill="#FFFFFF" filter="url(#f1a16831mfmohf)" height="191.1094" style="stroke:#A80036;stroke-width:1.0;" width="10" x="1019.5" y="213.0156"/><rect fill="#FFFFFF" filter="url(#f1a16831mfmohf)" height="60.7031" style="stroke:#A80036;stroke-width:1.0;" width="10" x="1281.5" y="243.3672"/><line style="stroke:#A80036;stroke-width:1.0;stroke-dasharray:5.0,5.0;" x1="38" x2="38" y1="89.6094" y2="413.125"/><line style="stroke:#A80036;stroke-width:1.0;stroke-dasharray:5.0,5.0;" x1="237.5" x2="237.5" y1="89.6094" y2="413.125"/><line style="stroke:#A80036;stroke-width:1.0;stroke-dasharray:5.0,5.0;" x1="638" x2="638" y1="89.6094" y2="413.125"/><line style="stroke:#A80036;stroke-width:1.0;stroke-dasharray:5.0,5.0;" x1="829" x2="829" y1="89.6094" y2="413.125"/><line style="stroke:#A80036;stroke-width:1.0;stroke-dasharray:5.0,5.0;" x1="1024.5" x2="1024.5" y1="89.6094" y2="413.125"/><line style="stroke:#A80036;stroke-width:1.0;stroke-dasharray:5.0,5.0;" x1="1286.5" x2="1286.5" y1="89.6094" y2="413.125"/><text fill="#000000" font-family="sans-serif" font-size="14" lengthAdjust="spacing" textLength="61" x="5" y="86.5332">Costumer</text><ellipse cx="38.5" cy="15" fill="#FEFECE" filter="url(#f1a16831mfmohf)" rx="8" ry="8" style="stroke:#A80036;stroke-width:2.0;"/><path d="M38.5,23 L38.5,50 M25.5,31 L51.5,31 M38.5,50 L25.5,65 M38.5,50 L51.5,65 " fill="none" filter="url(#f1a16831mfmohf)" style="stroke:#A80036;stroke-width:2.0;"/><text fill="#000000" font-family="sans-serif" font-size="14" lengthAdjust="spacing" textLength="61" x="5" y="426.6582">Costumer</text><ellipse cx="38.5" cy="439.7344" fill="#FEFECE" filter="url(#f1a16831mfmohf)" rx="8" ry="8" style="stroke:#A80036;stroke-width:2.0;"/><path d="M38.5,447.7344 L38.5,474.7344 M25.5,455.7344 L51.5,455.7344 M38.5,474.7344 L25.5,489.7344 M38.5,474.7344 L51.5,489.7344 " fill="none" filter="url(#f1a16831mfmohf)" style="stroke:#A80036;stroke-width:2.0;"/><rect fill="#FEFECE" filter="url(#f1a16831mfmohf)" height="31.6094" style="stroke:#A80036;stroke-width:1.5;" width="108" x="181.5" y="53"/><text fill="#000000" font-family="sans-serif" font-size="14" lengthAdjust="spacing" textLength="94" x="188.5" y="74.5332">OrderUpdateUI</text><rect fill="#FEFECE" filter="url(#f1a16831mfmohf)" height="31.6094" style="stroke:#A80036;stroke-width:1.5;" width="108" x="181.5" y="412.125"/><text fill="#000000" font-family="sans-serif" font-size="14" lengthAdjust="spacing" textLength="94" x="188.5" y="433.6582">OrderUpdateUI</text><rect fill="#FEFECE" filter="url(#f1a16831mfmohf)" height="31.6094" style="stroke:#A80036;stroke-width:1.5;" width="93" x="590" y="53"/><text fill="#000000" font-family="sans-serif" font-size="14" lengthAdjust="spacing" textLength="79" x="597" y="74.5332">OrderServer</text><rect fill="#FEFECE" filter="url(#f1a16831mfmohf)" height="31.6094" style="stroke:#A80036;stroke-width:1.5;" width="93" x="590" y="412.125"/><text fill="#000000" font-family="sans-serif" font-size="14" lengthAdjust="spacing" textLength="79" x="597" y="433.6582">OrderServer</text><rect fill="#FEFECE" filter="url(#f1a16831mfmohf)" height="31.6094" style="stroke:#A80036;stroke-width:1.5;" width="147" x="754" y="53"/><text fill="#000000" font-family="sans-serif" font-size="14" lengthAdjust="spacing" textLength="133" x="761" y="74.5332">OrderDoneController</text><rect fill="#FEFECE" filter="url(#f1a16831mfmohf)" height="31.6094" style="stroke:#A80036;stroke-width:1.5;" width="147" x="754" y="412.125"/><text fill="#000000" font-family="sans-serif" font-size="14" lengthAdjust="spacing" textLength="133" x="761" y="433.6582">OrderDoneController</text><rect fill="#FEFECE" filter="url(#f1a16831mfmohf)" height="31.6094" style="stroke:#A80036;stroke-width:1.5;" width="170" x="937.5" y="53"/><text fill="#000000" font-family="sans-serif" font-size="14" lengthAdjust="spacing" textLength="156" x="944.5" y="74.5332">Product_OrderController</text><rect fill="#FEFECE" filter="url(#f1a16831mfmohf)" height="31.6094" style="stroke:#A80036;stroke-width:1.5;" width="170" x="937.5" y="412.125"/><text fill="#000000" font-family="sans-serif" font-size="14" lengthAdjust="spacing" textLength="156" x="944.5" y="433.6582">Product_OrderController</text><rect fill="#FEFECE" filter="url(#f1a16831mfmohf)" height="31.6094" style="stroke:#A80036;stroke-width:1.5;" width="176" x="1196.5" y="53"/><text fill="#000000" font-family="sans-serif" font-size="14" lengthAdjust="spacing" textLength="162" x="1203.5" y="74.5332">Product_OrderRepository</text><rect fill="#FEFECE" filter="url(#f1a16831mfmohf)" height="31.6094" style="stroke:#A80036;stroke-width:1.5;" width="176" x="1196.5" y="412.125"/><text fill="#000000" font-family="sans-serif" font-size="14" lengthAdjust="spacing" textLength="162" x="1203.5" y="433.6582">Product_OrderRepository</text><rect fill="#FFFFFF" filter="url(#f1a16831mfmohf)" height="273.1641" style="stroke:#A80036;stroke-width:1.0;" width="10" x="232.5" y="121.9609"/><rect fill="#FFFFFF" filter="url(#f1a16831mfmohf)" height="212.4609" style="stroke:#A80036;stroke-width:1.0;" width="10" x="633.5" y="152.3125"/><rect fill="#FFFFFF" filter="url(#f1a16831mfmohf)" height="121.4063" style="stroke:#A80036;stroke-width:1.0;" width="10" x="824.5" y="182.6641"/><rect fill="#FFFFFF" filter="url(#f1a16831mfmohf)" height="191.1094" style="stroke:#A80036;stroke-width:1.0;" width="10" x="1019.5" y="213.0156"/><rect fill="#FFFFFF" filter="url(#f1a16831mfmohf)" height="60.7031" style="stroke:#A80036;stroke-width:1.0;" width="10" x="1281.5" y="243.3672"/><polygon fill="#A80036" points="220.5,117.9609,230.5,121.9609,220.5,125.9609,224.5,121.9609" style="stroke:#A80036;stroke-width:1.0;"/><line style="stroke:#A80036;stroke-width:1.0;" x1="38.5" x2="226.5" y1="121.9609" y2="121.9609"/><text fill="#000000" font-family="sans-serif" font-size="13" font-weight="bold" lengthAdjust="spacing" textLength="7" x="45.5" y="117.1045">1</text><text fill="#000000" font-family="sans-serif" font-size="13" lengthAdjust="spacing" textLength="164" x="56.5" y="117.1045">Wants to see all past orders</text><polygon fill="#A80036" points="621.5,148.3125,631.5,152.3125,621.5,156.3125,625.5,152.3125" style="stroke:#A80036;stroke-width:1.0;"/><line style="stroke:#A80036;stroke-width:1.0;" x1="242.5" x2="627.5" y1="152.3125" y2="152.3125"/><text fill="#000000" font-family="sans-serif" font-size="13" font-weight="bold" lengthAdjust="spacing" textLength="7" x="249.5" y="147.4561">2</text><text fill="#000000" font-family="sans-serif" font-size="13" lengthAdjust="spacing" textLength="361" x="260.5" y="147.4561">Sends encrypted message to get all Orders from the costumer</text><polygon fill="#A80036" points="812.5,178.6641,822.5,182.6641,812.5,186.6641,816.5,182.6641" style="stroke:#A80036;stroke-width:1.0;"/><line style="stroke:#A80036;stroke-width:1.0;" x1="643.5" x2="818.5" y1="182.6641" y2="182.6641"/><text fill="#000000" font-family="sans-serif" font-size="13" font-weight="bold" lengthAdjust="spacing" textLength="7" x="650.5" y="177.8076">3</text><text fill="#000000" font-family="sans-serif" font-size="13" lengthAdjust="spacing" textLength="151" x="661.5" y="177.8076">getOrdersFromCostumer()</text><polygon fill="#A80036" points="1007.5,209.0156,1017.5,213.0156,1007.5,217.0156,1011.5,213.0156" style="stroke:#A80036;stroke-width:1.0;"/><line style="stroke:#A80036;stroke-width:1.0;" x1="834.5" x2="1013.5" y1="213.0156" y2="213.0156"/><text fill="#000000" font-family="sans-serif" font-size="13" font-weight="bold" lengthAdjust="spacing" textLength="7" x="841.5" y="208.1592">4</text><text fill="#000000" font-family="sans-serif" font-size="13" lengthAdjust="spacing" textLength="155" x="852.5" y="208.1592">getOrdersFromCostumer();</text><polygon fill="#A80036" points="1269.5,239.3672,1279.5,243.3672,1269.5,247.3672,1273.5,243.3672" style="stroke:#A80036;stroke-width:1.0;"/><line style="stroke:#A80036;stroke-width:1.0;" x1="1029.5" x2="1275.5" y1="243.3672" y2="243.3672"/><text fill="#000000" font-family="sans-serif" font-size="13" font-weight="bold" lengthAdjust="spacing" textLength="7" x="1036.5" y="238.5107">5</text><text fill="#000000" font-family="sans-serif" font-size="13" lengthAdjust="spacing" textLength="222" x="1047.5" y="238.5107">getOrdersFromCostumer(costumer_id)</text><polygon fill="#A80036" points="1040.5,269.7188,1030.5,273.7188,1040.5,277.7188,1036.5,273.7188" style="stroke:#A80036;stroke-width:1.0;"/><line style="stroke:#A80036;stroke-width:1.0;stroke-dasharray:2.0,2.0;" x1="1034.5" x2="1280.5" y1="273.7188" y2="273.7188"/><text fill="#000000" font-family="sans-serif" font-size="13" font-weight="bold" lengthAdjust="spacing" textLength="7" x="1046.5" y="268.8623">6</text><text fill="#000000" font-family="sans-serif" font-size="13" lengthAdjust="spacing" textLength="0" x="1061.5" y="268.8623"/><polygon fill="#A80036" points="840.5,300.0703,830.5,304.0703,840.5,308.0703,836.5,304.0703" style="stroke:#A80036;stroke-width:1.0;"/><line style="stroke:#A80036;stroke-width:1.0;" x1="834.5" x2="1018.5" y1="304.0703" y2="304.0703"/><text fill="#000000" font-family="sans-serif" font-size="13" font-weight="bold" lengthAdjust="spacing" textLength="7" x="846.5" y="299.2139">7</text><text fill="#000000" font-family="sans-serif" font-size="13" lengthAdjust="spacing" textLength="0" x="861.5" y="299.2139"/><polygon fill="#A80036" points="654.5,330.4219,644.5,334.4219,654.5,338.4219,650.5,334.4219" style="stroke:#A80036;stroke-width:1.0;"/><line style="stroke:#A80036;stroke-width:1.0;" x1="648.5" x2="828.5" y1="334.4219" y2="334.4219"/><text fill="#000000" font-family="sans-serif" font-size="13" font-weight="bold" lengthAdjust="spacing" textLength="7" x="660.5" y="329.5654">8</text><text fill="#000000" font-family="sans-serif" font-size="13" lengthAdjust="spacing" textLength="0" x="675.5" y="329.5654"/><polygon fill="#A80036" points="253.5,360.7734,243.5,364.7734,253.5,368.7734,249.5,364.7734" style="stroke:#A80036;stroke-width:1.0;"/><line style="stroke:#A80036;stroke-width:1.0;" x1="247.5" x2="637.5" y1="364.7734" y2="364.7734"/><text fill="#000000" font-family="sans-serif" font-size="13" font-weight="bold" lengthAdjust="spacing" textLength="7" x="259.5" y="359.917">9</text><text fill="#000000" font-family="sans-serif" font-size="13" lengthAdjust="spacing" textLength="0" x="274.5" y="359.917"/><polygon fill="#A80036" points="49.5,391.125,39.5,395.125,49.5,399.125,45.5,395.125" style="stroke:#A80036;stroke-width:1.0;"/><line style="stroke:#A80036;stroke-width:1.0;stroke-dasharray:2.0,2.0;" x1="43.5" x2="236.5" y1="395.125" y2="395.125"/><text fill="#000000" font-family="sans-serif" font-size="13" font-weight="bold" lengthAdjust="spacing" textLength="14" x="55.5" y="390.2686">10</text><text fill="#000000" font-family="sans-serif" font-size="13" lengthAdjust="spacing" textLength="79" x="73.5" y="390.2686">Shows orders</text><!--MD5=[e348fd4b25bfd98ffbfdf3a00124b8cb]
@startuml
'https://plantuml.com/sequence-diagram

autonumber
Actor "Costumer" as employee
Participant OrderUpdateUI as UI
Participant OrderServer as serv

Participant OrderDoneController as Controller
Participant Product_OrderController as PController
Participant Product_OrderRepository as repProduct_Order

employee->UI:Wants to see all past orders
activate UI
UI->serv:Sends encrypted message to get all Orders from the costumer
activate serv
serv->Controller:getOrdersFromCostumer()
activate Controller


Controller->PController:getOrdersFromCostumer();

activate PController
PController->repProduct_Order:getOrdersFromCostumer(costumer_id)
activate repProduct_Order
repProduct_Order- ->PController
PController->Controller
deactivate Controller
deactivate repProduct_Order
Controller->serv
serv->UI
deactivate serv
UI- ->employee:Shows orders
deactivate UI


@enduml

@startuml

autonumber
Actor "Costumer" as employee
Participant OrderUpdateUI as UI
Participant OrderServer as serv

Participant OrderDoneController as Controller
Participant Product_OrderController as PController
Participant Product_OrderRepository as repProduct_Order

employee->UI:Wants to see all past orders
activate UI
UI->serv:Sends encrypted message to get all Orders from the costumer
activate serv
serv->Controller:getOrdersFromCostumer()
activate Controller


Controller->PController:getOrdersFromCostumer();

activate PController
PController->repProduct_Order:getOrdersFromCostumer(costumer_id)
activate repProduct_Order
repProduct_Order- ->PController
PController->Controller
deactivate Controller
deactivate repProduct_Order
Controller->serv
serv->UI
deactivate serv
UI- ->employee:Shows orders
deactivate UI


@enduml

PlantUML version 1.2021.11(Sat Oct 02 14:26:11 BST 2021)
(GPL source distribution)
Java Runtime: OpenJDK Runtime Environment
JVM: OpenJDK 64-Bit Server VM
Default Encoding: Cp1252
Language: pt
Country: PT
--></g></svg>