@startuml
'https://plantuml.com/class-diagram

class Address{
Address()
}
class BirthDate{
BirthDate()

}
class Email{
Email()
}
class Name{
Name()
}

class Gender{
Gender()
}

class PhoneNUmber{
PhoneNUmber()
}
class VateId{
VateId()
}


class Costumer{
Costumer()
sameAs()
identity()

}
Costumer-->Address
Costumer-->Gender
Costumer-->Name
Costumer-->Email
Costumer-->BirthDate
Costumer-->VateId
Costumer-->PhoneNUmber

interface CostumerRepository


class CostumerUI
class CostumerController{
readFile(int choose)
}

class CostumerAction

CostumerUI-->CostumerAction
CostumerAction-->CostumerController
CostumerRepository-->Costumer
CostumerController--->Costumer



@enduml