@startuml
'https://plantuml.com/class-diagram



interface Product_OrderRepository



class ProjectManagerUI


class OrderServerController{
findCostumerByEmail()
shoppingCartExistance()
getProduct()
getOrdersFromCostumer()
}

class Product_Order{
Product_Order()
}

class OrderServer{
}

class OrderServerThread{
}

ProjectManagerUI-->OrderServer
OrderServer-->OrderServerThread
OrderServerThread-->OrderServerController
OrderServerController--->Product_OrderRepository

Product_OrderRepository-->Product_Order

@enduml